Magic: The Gathering EDA
…
I then did a density check by rarity, which uncovered 3 groups I didnt want to use in this dataset: Bonus, Promo, and Special

## # A tibble: 54 x 3
## # Groups:   rarity [4]
##    rarity convertedMana count
##    <chr>          <int> <int>
##  1 Common             0  1366
##  2 Common             1  2499
##  3 Common             2  3825
##  4 Common             3  3288
##  5 Common             4  1817
##  6 Common             5   975
##  7 Common             6   391
##  8 Common             7    99
##  9 Common             8    34
## 10 Common             9     1
## # ... with 44 more rows
…
With my new Dataset I created a separated list of the subtypes, I also created a single array of values to see them more space-efficiently

## # A tibble: 1,434 x 2
##    subType             n
##    <chr>           <int>
##  1 ""              15924
##  2 "Aura"           1772
##  3 "Human Wizard"    705
##  4 "Elemental"       654
##  5 "Human Soldier"   603
##  6 "Spirit"          506
##  7 "Equipment"       479
##  8 "Beast"           438
##  9 "Angel"           373
## 10 "Human Cleric"    366
## # ... with 1,424 more rows
…
Its interesting to see, that in the top returned values only a few of the 7 sampled subtypes appear.

## # A tibble: 303 x 4
##    subType          n   max convertedMana
##    <chr>        <int> <int>         <dbl>
##  1 Adventure       31     7          2.52
##  2 Ajani           19     6          4.47
##  3 Angel          373     9          5.56
##  4 Angel Spirit    18     5          3.06
##  5 Antelope        13     5          3.31
##  6 Ape             34     8          3.97
##  7 Arcane         138     6          2.82
##  8 Archon          29     9          6.03
##  9 Atog            19     6          2.84
## 10 Aura          1772     8          2.49
## # ... with 293 more rows
…
## # A tibble: 87 x 5
##    subType          n   max median convertedMana
##    <chr>        <int> <int>  <dbl>         <dbl>
##  1 Angel          373     9      5          5.56
##  2 Arcane         138     6      3          2.82
##  3 Aura          1772     8      2          2.49
##  4 Avatar          95    11      6          6.12
##  5 Beast          438    10      5          4.81
##  6 Bird           247     7      2          2.84
##  7 Bird Soldier    69     6      4          3.88
##  8 Cat            141     6      3          2.79
##  9 Construct      253    11      3          3.63
## 10 Demon          154    10      6          5.69
## # ... with 77 more rows
…
 #### Analysis One: Creature Types and Cost Distribution

## # A tibble: 71 x 3
## # Groups:   convertedMana [16]
##    convertedMana count subtype
##            <int> <int> <chr>  
##  1             0    10 Human  
##  2             1   401 Human  
##  3             2   981 Human  
##  4             3  1226 Human  
##  5             4   758 Human  
##  6             5   380 Human  
##  7             6   140 Human  
##  8             7    31 Human  
##  9             8     4 Human  
## 10             0     1 Wizard 
## # ... with 61 more rows
…
The Graph above indicates that whereas there ARE outliers, to be certain, more of the data does follow a trend of sticking close to its highest value. I opted not to use median in the final analysis because whereas it does have a higher correlation, I also wasnt as surprised by the result of creating that graph.

Analysis Three

## $title
## [1] "Density of Cards(Rare and Mythic Rare)"
## 
## attr(,"class")
## [1] "labels"

## # A tibble: 22 x 3
## # Groups:   rarity [3]
##    rarity      subType       count
##    <chr>       <chr>         <int>
##  1 Mythic Rare Angel            37
##  2 Mythic Rare Demon            22
##  3 Mythic Rare Dragon           21
##  4 Mythic Rare Elder Dragon     10
##  5 Mythic Rare Eldrazi          11
##  6 Mythic Rare Elemental        22
##  7 Mythic Rare Human Cleric     10
##  8 Mythic Rare Human Shaman     12
##  9 Mythic Rare Human Warrior    14
## 10 Mythic Rare Human Wizard     22
## # ... with 12 more rows
…
